{
  "name": "removeFavoriteVessel",
  "runtime": "nodejs4.3",
  "description": "Removes a vessel from the user's favorites.",
  "customName": false,
  "customRole": false,
  "handler": "lib/api/removeFavoriteVessel/handler.handler",
  "timeout": 6,
  "memorySize": "${defaultMemory}",
  "authorizer": {},
  "custom": {
    "cors": {
      "allowOrigin": "*",
      "allowHeaders": [
        "Content-Type",
        "X-Amz-Date",
        "Authorization",
        "X-Api-Key"
      ]
    },
    "optimize": {
      "exclude": [
        "aws-sdk"
      ],
      "disable": false,
      "transforms": [
        {
          "name": "babelify",
          "opts": {
            "presets": [
              "es2015"
            ]
          }
        }
      ]
    }
  },
  "endpoints": [
    {
      "path": "vessels/{vesselId}/favorite",
      "method": "DELETE",
      "type": "AWS",
      "authorizationType": "${defaultAuthorizationType}",
      "authorizerFunction": false,
      "apiKeyRequired": false,
      "requestParameters": {},
      "requestTemplates": "$${apiGatewayRequestTemplate}",
      "responses": "$${responsesForDelete}"
    }
  ],
  "events": [],
  "environment": "$${defaultEnvironment}",
  "vpc": {
    "securityGroupIds": [],
    "subnetIds": []
  }
}