{
  "name": "shareSearch",
  "runtime": "nodejs4.3",
  "description": "Shares a search over email.",
  "customName": false,
  "customRole": false,
  "handler": "lib/api/shareSearch/handler.handler",
  "timeout": 15,
  "memorySize": "${defaultMemory}",
  "authorizer": {},
  "custom": {
    "cors": {
      "allowOrigin": "*",
      "allowHeaders": [
        "Content-Type",
        "X-Amz-Date",
        "Authorization",
        "X-Api-Key"
      ]
    },
    "optimize": {
      "includePaths": [
        "lib/templates"
      ],
      "exclude": [
        "aws-sdk"
      ],
      "disable": false,
      "transforms": [{
        "name": "babelify",
        "opts": {
          "presets": [
            "es2015"
          ]
        }
      }]
    }
  },
  "endpoints": [{
    "path": "searches/{searchId}/share",
    "method": "POST",
    "type": "AWS",
    "authorizationType": "${defaultAuthorizationType}",
    "authorizerFunction": false,
    "apiKeyRequired": false,
    "requestParameters": {},
    "requestTemplates": "$${apiGatewayRequestTemplate}",
    "responses": "$${responsesForPost}"
  }],
  "events": [],
  "environment": "$${defaultEnvironment}",
  "vpc": {
    "securityGroupIds": [],
    "subnetIds": []
  }
}